Analisis Exploratorio Proyecto
…
    Lilliefors (Kolmogorov-Smirnov) normality test

data:  db12_21$AGR_EDAD
D = 0.092425, p-value < 2.2e-16

Analizando la gráfica, resulta evidente que la variable no se comporta de forma normal, lo cual se confirma al realizar una prueba de Lilliefors, pues $$ < 0.05 H_0 $$ debe ser rechazada. Por lo tanto, AGR_EDAD no se sigue una distribución normal.

Tablas de frecuencia

DEPTO_MCPIO

db12_21 %>% count(DEPTO_MCPIO)

# A tibble: 340 × 2
   DEPTO_MCPIO     n
   <fct>       <int>
 1 101         24832
 2 102           616
 3 103           359
 4 104           104
 5 105           572
 6 106          3022
 7 107           177
 8 108          8522
 9 109           301
10 110          1720
# … with 330 more rows
…
db12_21 %>% count(VIC_ALFAB)

# A tibble: 4 × 2
  VIC_ALFAB      n
  <fct>      <int>
1 1         267996
2 2          56245
3 9           1830
4 <NA>         623

VIC_ESCOLARIDAD

db12_21 %>% count(VIC_ESCOLARIDAD)

# A tibble: 26 × 2
   VIC_ESCOLARIDAD     n
   <fct>           <int>
 1 10              63649
 2 21               4336
 3 22              10097
 4 23              14721
 5 24               7947
 6 25               7085
 7 26              47349
 8 29              40780
 9 31               4419
10 32               6427
# … with 16 more rows
…
db12_21 %>% count(VIC_TRABAJA)

# A tibble: 4 × 2
  VIC_TRABAJA      n
  <fct>        <int>
1 1           107143
2 2           217432
3 9             1496
4 <NA>           623

VIC_OCUP

db12_21 %>% count(VIC_OCUP)

# A tibble: 401 × 2
   VIC_OCUP     n
   <fct>    <int>
 1 110         28
 2 210          5
 3 310         52
 4 1111         9
 5 1112        27
 6 1113         1
 7 1114         3
 8 1120       268
 9 1211         9
10 1212        33
# … with 391 more rows
…
HEC_DEPTOMCPIO

db12_21 %>% count(HEC_DEPTOMCPIO)

# A tibble: 341 × 2
   HEC_DEPTOMCPIO     n
   <fct>          <int>
 1 101            21832
 2 102              880
 3 103              490
 4 104              121
 5 105              658
 6 106             3308
 7 107              316
 8 108             8945
 9 109              343
10 110             1861
# … with 331 more rows
…
db12_21 %>% count(AGR_ALFAB)

# A tibble: 3 × 2
  AGR_ALFAB      n
  <fct>      <int>
1 1         279585
2 2          39916
3 9           7193

AGR_ESCOLARIDAD

db12_21 %>% count(AGR_ESCOLARIDAD)

# A tibble: 25 × 2
   AGR_ESCOLARIDAD     n
   <fct>           <int>
 1 10              48103
 2 21               3551
 3 22               9214
 4 23              14749
 5 24               6970
 6 25               6137
 7 26              54613
 8 29              43664
 9 31               4476
10 32               5741
# … with 15 more rows
…
db12_21 %>% count(AGR_TRABAJA)

# A tibble: 3 × 2
  AGR_TRABAJA      n
  <fct>        <int>
1 1           254382
2 2            61066
3 9            11246

AGR_OCUP

db12_21 %>% count(AGR_OCUP)

# A tibble: 423 × 2
   AGR_OCUP     n
   <fct>    <int>
 1 110        142
 2 210         23
 3 310        325
 4 1111        33
 5 1112        46
 6 1113        12
 7 1114         2
 8 1120       287
 9 1211        12
10 1212        22
# … with 413 more rows
…
